variable,importance,category
HIS_m2H22,0.1228263703010206,BEHAVIORAL
daysAccountOpen,0.0877350211670444,ACCOUNT
MAX<prevLoans$FAC_DPD>,0.07838828201050692,BEHAVIORAL
MAX<prevLoans$FAC_DPD>_LBM3,0.06883463637926662,BEHAVIORAL
MNO_seniority_B20,0.05942136677861106,TELCO
COUNT<prevLoans$FAC_loanID>_LBM3,0.05373824997240663,BEHAVIORAL
SUM<WAL_cashin_LBM12>_B20,0.051490864520056814,MW
DEM_region_conversion,0.050220511420275636,DEMO
SUM<WAL_cashflow_LBM12>_B20,0.04375319140704752,MW
DEM_age,0.0365250071380415,DEMO
WAL_seniority_B20,0.035695479205687844,MW
<SUM<WAL_cashflow>_LBM12_over_SUM<WAL_cashin>_LBM12>_B20,0.03500285437932546,MW
current_loan_cycle,0.028520258895519637,BEHAVIORAL
HIS_m2H1,0.02790921382767986,BEHAVIORAL
HIS_m2H21,0.026880911711845763,BEHAVIORAL
MEAN<prevLoans$FAC_DPD>_LBM3,0.018905316405978884,BEHAVIORAL
SUM<LEN_savingsCashin>,0.01709217242885091,SAVINGS
<SUM<MNO_voiceRecharge>_LBM12_over_SUM<MNO_recharge>_LBM12>_B20,0.01679679634856364,TELCO
<SUM<MNO_eRecharge>_LBM12_over_SUM<MNO_recharge>_LBM12>_B20,0.01587151168182968,TELCO
COUNT<WAL_cashTransactions_LBM12>_B20,0.015719607243084254,MW
COUNT<MNO_recharge_LBM12>_B20,0.014767208316658372,TELCO
SUM<MNO_recharge_LBM12>_B20,0.013700901642399215,TELCO
<COUNT<MNO_recharge>_LBM12_over_COUNT<WAL_cashTransactions>_LBM12>_B20,0.013245774615333454,TELCO
DEM_gender,0.012372154327471043,DEMO
HIS_m2H3,0.01215867959144633,BEHAVIORAL
week_of_the_month,0.010596831000682184,SEASONAL
<SUM<MNO_recharge>_LBM12_over_SUM<WAL_cashin>_LBM12>_B20,0.007546684724741975,MW
DEM_maritalStatus,0.007011119609182975,DEMO
MEAN<LEN_savingsBalance>,0.005758765079056408,SAVINGS
DEM_rural_urban,0.005112539237484264,DEMO
hour,0.004056630525186553,SEASONAL
COUNT<LEN_savingsCashin>,0.0014173027586605034,SAVINGS
weekday,0.0008756383228921778,SEASONAL
isHoliday,5.214702616080829e-05,SEASONAL
